[
    {"district":"Ahanta West District","region":"western"},
    {"district":"Aowin\/Suaman District","region":"western"},
    {"district":"Bia West District","region":"western"},
    {"district":"Bia East District","region":"western"},
    {"district":"Bibiani\/Anhwiaso\/Bekwai District","region":"western"},
    {"district":"Bodi District","region":"western"},
    {"district":"Ellembele District","region":"western"},
    {"district":"Jomoro District","region":"western"},
    {"district":"Juaboso District","region":"western"},
    {"district":"Mpohor District","region":"western"},
    {"district":"Mpohor\/Wassa East District","region":"western"},
    {"district":"Nzema East Municipal District","region":"western"},
    {"district":"Prestea-Huni Valley District","region":"western"},
    {"district":"Sefwi Akontombra District","region":"western"},
    {"district":"Sefwi Wiawso Municipal District","region":"western"},
    {"district":"Sekondi Takoradi Metropolitan Assembly","region":"western"},
    {"district":"Shama District","region":"western"},
    {"district":"Suaman District","region":"western"},
    {"district":"Tarkwa-Nsuaem Municipal District","region":"western"},
    {"district":"Wasa Amenfi East District","region":"western"},
    {"district":"Wasa Amenfi West District","region":"western"},
    {"district":"Wassa Amenfi Central District","region":"western"},
    {"district":"Daffiama Bussie Issa District","region":"upper west"},
    {"district":"Jirapa District","region":"upper west"},
    {"district":"Lambussie Karni District","region":"upper west"},
    {"district":"Lawra District","region":"upper west"},
    {"district":"Nadowli District","region":"upper west"},
    {"district":"Nandom District","region":"upper west"},
    {"district":"Sissala East District","region":"upper west"},
    {"district":"Sissala West District","region":"upper west"},
    {"district":"Wa East District","region":"upper west"},
    {"district":"Wa Municipal District","region":"upper west"},
    {"district":"Wa West District","region":"upper west"},
    {"district":"Bawku Municipal District","region":"upper east"},
    {"district":"Bawku West District","region":"upper east"},
    {"district":"Binduri District","region":"upper east"},
    {"district":"Bolgatanga Municipal District","region":"upper east"},
    {"district":"Bongo District","region":"upper east"},
    {"district":"Builsa District","region":"upper east"},
    {"district":"Builsa South District","region":"upper east"},
    {"district":"Garu-Tempane District","region":"upper east"},
    {"district":"Kassena Nankana East District","region":"upper east"},
    {"district":"Kassena Nankana West District","region":"upper east"},
    {"district":"Nabdam District","region":"upper east"},
    {"district":"Pusiga District","region":"upper east"},
    {"district":"Talensi District","region":"upper east"},
    {"district":"Bole District","region":"savannah"},
    {"district":"Central Gonja District","region":"savannah"},
    {"district":"East Gonja Municipal District","region":"savannah"},
    {"district":"North Gonja District","region":"savannah"},
    {"district":"North East Gonja","region":"savannah"},
    {"district":"Sawla-Tuna-Kalba","region":"savannah"},
    {"district":"West Gonja","region":"savannah"},
    {"district":"Biakoye District","region":"oti"},
    {"district":"Jasikan District","region":"oti"},
    {"district":"Kadjebi District","region":"oti"},
    {"district":"Krachi East District","region":"oti"},
    {"district":"Krachi Nchumuru District","region":"oti"},
    {"district":"Krachi West District","region":"oti"},
    {"district":"Nkwanta North District","region":"oti"},
    {"district":"Nkwanta South District","region":"oti"},
    {"district":"Bunkpurugu-Nyankpanduri District","region":"northern east"},
    {"district":"Chereponi District","region":"northern east"},
    {"district":"East Mamprusi Municipal Assembly","region":"northern east"},
    {"district":"Mamprugu Moaduri District","region":"northern east"},
    {"district":"West Mamprusi Municipal District","region":"northern east"},
    {"district":"Yunyoo-Nasuan District","region":"northern east"},
    {"district":"Gushegu Municipal District","region":"northern"},
    {"district":"Karaga District","region":"northern"},
    {"district":"Kpandai District","region":"northern"},
    {"district":"Kumbungu District","region":"northern"},
    {"district":"Mion District","region":"northern"},
    {"district":"Nanton District","region":"northern"},
    {"district":"Nanumba North Municipal District","region":"northern"},
    {"district":"Nanumba South District","region":"northern"},
    {"district":"Saboba District","region":"northern"},
    {"district":"Sagnarigu Municipal District","region":"northern"},
    {"district":"Savelugu Municipal District","region":"northern"},
    {"district":"Tamale Metropolitan District","region":"northern"},
    {"district":"Tatale Sangule District","region":"northern"},
    {"district":"Tolon District","region":"northern"},
    {"district":"Yendi Municipal District","region":"northern"},
    {"district":"Zabzugu District","region":"northern"},
    {"district":"Ablekuma North Municipal District","region":"greater accra"},
    {"district":"Ablekuma West Municipal District","region":"greater accra"},
    {"district":"Accra Metropolitan District","region":"greater accra"},
    {"district":"Ada East District","region":"greater accra"},
    {"district":"Ada West District","region":"greater accra"},
    {"district":"Adenta Municipal District","region":"greater accra"},
    {"district":"Ashaiman Municipal District","region":"greater accra"},
    {"district":"Ayawaso East Municipal District","region":"greater accra"},
    {"district":"Ayawaso North Municipal District","region":"greater accra"},
    {"district":"Ayawaso West Municipal District","region":"greater accra"},
    {"district":"Ga Central District","region":"greater accra"},
    {"district":"Ga East Municipal District","region":"greater accra"},
    {"district":"Ga North Municipal District","region":"greater accra"},
    {"district":"Ga South Municipal District","region":"greater accra"},
    {"district":"Ga West Municipal District","region":"greater accra"},
    {"district":"Kpone Katamanso Municipal District","region":"greater accra"},
    {"district":"Krowor Municipal District","region":"greater accra"},
    {"district":"La Dade Kotopon Municipal District","region":"greater accra"},
    {"district":"La Nkwantanang Madina Municipal District","region":"greater accra"},
    {"district":"Ledzokuku Municipal District","region":"greater accra"},
    {"district":"Ningo Prampram District","region":"greater accra"},
    {"district":"Okaikwei Municipal District","region":"greater accra"},
    {"district":"Shai Osudoku District","region":"greater accra"},
    {"district":"Tema Metropolitan District","region":"greater accra"},
    {"district":"Tema West Municipal District","region":"greater accra"},
    {"district":"Weija Municipal District","region":"greater accra"},
    {"district":"Akuapim South District","region":"eastern"},
    {"district":"Akuapim North District","region":"eastern"},
    {"district":"Akyemansa District","region":"eastern"},
    {"district":"Asuogyaman District","region":"eastern"},
    {"district":"Ayensuano District","region":"eastern"},
    {"district":"Atiwa East District","region":"eastern"},
    {"district":"Atiwa West District","region":"eastern"},
    {"district":"Birim Central Municipal District","region":"eastern"},
    {"district":"Birim North District","region":"eastern"},
    {"district":"Birim South District","region":"eastern"},
    {"district":"Denkyembour District","region":"eastern"},
    {"district":"East Akim Municipal District","region":"eastern"},
    {"district":"Fanteakwa District","region":"eastern"},
    {"district":"Kwaebibirem District","region":"eastern"},
    {"district":"Kwahu Afram Plains North District","region":"eastern"},
    {"district":"Kwahu Afram Plains South District","region":"eastern"},
    {"district":"Kwahu East District","region":"eastern"},
    {"district":"Kwahu South District","region":"eastern"},
    {"district":"Kwahu West Municipal District","region":"eastern"},
    {"district":"Lower Manya Krobo District","region":"eastern"},
    {"district":"New-Juaben Municipal District","region":"eastern"},
    {"district":"Nsawam Adoagyire Municipal District","region":"eastern"},
    {"district":"Suhum Municipal","region":"eastern"},
    {"district":"Upper Manya Krobo District","region":"eastern"},
    {"district":"Upper West Akim District","region":"eastern"},
    {"district":"West Akim Municipal District","region":"eastern"},
    {"district":"Yilo Krobo Municipal","region":"eastern"},
    {"district":"Abura\/Asebu\/Kwamankese District","region":"central"},
    {"district":"Agona East District","region":"central"},
    {"district":"Agona West Municipal District","region":"central"},
    {"district":"Ajumako\/Enyan\/Essiam District","region":"central"},
    {"district":"Asikuma\/Odoben\/Brakwa District","region":"central"},
    {"district":"Assin North Municipal District","region":"central"},
    {"district":"Assin South District","region":"central"},
    {"district":"Awutu Senya East Municipal District","region":"central"},
    {"district":"Awutu Senya West District","region":"central"},
    {"district":"Cape Coast Metropolitan District","region":"central"},
    {"district":"Effutu Municipal District","region":"central"},
    {"district":"Ekumfi District","region":"central"},
    {"district":"Gomoa East District","region":"central"},
    {"district":"Gomoa West District","region":"central"},
    {"district":"Komenda\/Edina\/Eguafo\/Abirem Municipal District","region":"central"},
    {"district":"Mfantsiman Municipal District","region":"central"},
    {"district":"Twifo-Ati Morkwa District","region":"central"},
    {"district":"Twifo\/Heman\/Lower Denkyira District","region":"central"},
    {"district":"Upper Denkyira East Municipal District","region":"central"},
    {"district":"Upper Denkyira West District","region":"central"},
    {"district":"Asunafo North Municipal District","region":"brong-ahafo"},
    {"district":"Asunafo South District","region":"brong-ahafo"},
    {"district":"Asutifi North District","region":"brong-ahafo"},
    {"district":"Asutifi South District","region":"brong-ahafo"},
    {"district":"Atebubu-Amantin District","region":"brong-ahafo"},
    {"district":"Banda District","region":"brong-ahafo"},
    {"district":"Berekum East Municipal District","region":"brong-ahafo"},
    {"district":"Berekum Municipal District","region":"brong-ahafo"},
    {"district":"Dormaa East District","region":"brong-ahafo"},
    {"district":"Dormaa Municipal District","region":"brong-ahafo"},
    {"district":"Dormaa West District","region":"brong-ahafo"},
    {"district":"Jaman North District","region":"brong-ahafo"},
    {"district":"Jaman South District","region":"brong-ahafo"},
    {"district":"Kintampo North Municipal District","region":"brong-ahafo"},
    {"district":"Kintampo South District","region":"brong-ahafo"},
    {"district":"Nkoranza North District","region":"brong-ahafo"},
    {"district":"Nkoranza South District","region":"brong-ahafo"},
    {"district":"Pru District","region":"brong-ahafo"},
    {"district":"Sene East District","region":"brong-ahafo"},
    {"district":"Sene West District","region":"brong-ahafo"},
    {"district":"Sunyani Municipal District","region":"brong-ahafo"},
    {"district":"Sunyani West District","region":"brong-ahafo"},
    {"district":"Tain District","region":"brong-ahafo"},
    {"district":"Tano North District","region":"brong-ahafo"},
    {"district":"Tano South District","region":"brong-ahafo"},
    {"district":"Techiman Municipal District","region":"brong-ahafo"},
    {"district":"Techiman North District","region":"brong-ahafo"},
    {"district":"Wenchi Municipal District","region":"brong-ahafo"},
    {"district":"Adansi North District","region":"ashanti"},
    {"district":"Adansi South District","region":"ashanti"},
    {"district":"Afigya-Kwabre District","region":"ashanti"},
    {"district":"Ahafo Ano North District","region":"ashanti"},
    {"district":"Ahafo Ano South District","region":"ashanti"},
    {"district":"Amansie Central District","region":"ashanti"},
    {"district":"Amansie West District","region":"ashanti"},
    {"district":"[[Asante-Akim Central|Asante Akim Central Municipal","region":"ashanti"},
    {"district":"Asante Akim North District","region":"ashanti"},
    {"district":"Asante Akim South District","region":"ashanti"},
    {"district":"Asokore Mampong Municipal","region":"ashanti"},
    {"district":"Atwima Kwanwoma District","region":"ashanti"},
    {"district":"Atwima Mponua District","region":"ashanti"},
    {"district":"Atwima Nwabiagya District","region":"ashanti"},
    {"district":"Bekwai Municipal District","region":"ashanti"},
    {"district":"Bosome Freho District","region":"ashanti"},
    {"district":"Botsomtwe District","region":"ashanti"},
    {"district":"Ejisu Municipal District","region":"ashanti"},
    {"district":"Ejura - Sekyedumase District","region":"ashanti"},
    {"district":"Kumasi Metropolitan District","region":"ashanti"},
    {"district":"Kwabre East District","region":"ashanti"},
    {"district":"Mampong Municipal District","region":"ashanti"},
    {"district":"Obuasi Municipal District","region":"ashanti"},
    {"district":"Offinso North District","region":"ashanti"},
    {"district":"Offinso South Municipal District","region":"ashanti"},
    {"district":"Sekyere Afram Plains District","region":"ashanti"},
    {"district":"Sekyere Central District","region":"ashanti"},
    {"district":"Sekyere East District","region":"ashanti"},
    {"district":"Sekyere Kumawu District","region":"ashanti"},
    {"district":"Sekyere South District","region":"ashanti"},
    {"district":"[[Asokwa Municipal Assembly","region":"ashanti"},
    {"district":"[[ Oforikrom Municipal Asembly","region":"ashanti"},
    {"district":"Kwadaso Municipal Assembly","region":"ashanti"},
    {"district":"Suame Municipal Assembly","region":"ashanti"},
    {"district":"Old Tafo Municipal Assembly","region":"ashanti"},
    {"district":"Atwima Nwabiagya North District Assembly","region":"ashanti"},
    {"district":"Afigya Kwabre North District Assembly","region":"ashanti"},
    {"district":"Amansie South District Assembly","region":"ashanti"},
    {"district":"Obuasi East District Assembly","region":"ashanti"},
    {"district":"Ahafo Ano South East District Assembly","region":"ashanti"},
    {"district":"Adansi Akrofurom District Assembly","region":"ashanti"},
    {"district":"Juaben Municipal Assembly","region":"ashanti"}
]
